﻿[
  {
    "outputFile": "Content/css/colors.css",
    "inputFile": "Content/css/colors.less"
  },
  {
    "outputFile": "Content/css/views/shared/header.css",
    "inputFile": "Content/css/views/shared/header.less"
  },
  {
    "outputFile": "Content/css/views/layout.css",
    "inputFile": "Content/css/views/layout.less"
  },
  {
    "outputFile": "Content/bootstrap/bootstrap.css",
    "inputFile": "Content/bootstrap/bootstrap.less"
  }
]